<?xml version="1.0" encoding="utf-8" standalone="no"?>
<!DOCTYPE svg PUBLIC "-//W3C//DTD SVG 1.1//EN"
  "http://www.w3.org/Graphics/SVG/1.1/DTD/svg11.dtd">
<svg xmlns:xlink="http://www.w3.org/1999/xlink" width="576pt" height="432pt" viewBox="0 0 576 432" xmlns="http://www.w3.org/2000/svg" version="1.1">
 <metadata>
  <rdf:RDF xmlns:dc="http://purl.org/dc/elements/1.1/" xmlns:cc="http://creativecommons.org/ns#" xmlns:rdf="http://www.w3.org/1999/02/22-rdf-syntax-ns#">
   <cc:Work>
    <dc:type rdf:resource="http://purl.org/dc/dcmitype/StillImage"/>
    <dc:date>2023-11-19T15:28:00.346003</dc:date>
    <dc:format>image/svg+xml</dc:format>
    <dc:creator>
     <cc:Agent>
      <dc:title>Matplotlib v3.7.2, https://matplotlib.org/</dc:title>
     </cc:Agent>
    </dc:creator>
   </cc:Work>
  </rdf:RDF>
 </metadata>
 <defs>
  <style type="text/css">*{stroke-linejoin: round; stroke-linecap: butt}</style>
 </defs>
 <g id="figure_1">
  <g id="patch_1">
   <path d="M 0 432 
L 576 432 
L 576 0 
L 0 0 
z
" style="fill: #ffffff"/>
  </g>
  <g id="axes_1">
   <g id="patch_2">
    <path d="M 72 384.48 
L 518.4 384.48 
L 518.4 51.84 
L 72 51.84 
z
" style="fill: #ffffff"/>
   </g>
   <g id="matplotlib.axis_1">
    <g id="xtick_1">
     <g id="line2d_1">
      <defs>
       <path id="m560208e05f" d="M 0 0 
L 0 3.5 
" style="stroke: #000000; stroke-width: 0.8"/>
      </defs>
      <g>
       <use xlink:href="#m560208e05f" x="123.507692" y="384.48" style="stroke: #000000; stroke-width: 0.8"/>
      </g>
     </g>
     <g id="text_1">
      <!-- 2 -->
      <g transform="translate(120.326442 399.078438) scale(0.1 -0.1)">
       <defs>
        <path id="DejaVuSans-32" d="M 1228 531 
L 3431 531 
L 3431 0 
L 469 0 
L 469 531 
Q 828 903 1448 1529 
Q 2069 2156 2228 2338 
Q 2531 2678 2651 2914 
Q 2772 3150 2772 3378 
Q 2772 3750 2511 3984 
Q 2250 4219 1831 4219 
Q 1534 4219 1204 4116 
Q 875 4013 500 3803 
L 500 4441 
Q 881 4594 1212 4672 
Q 1544 4750 1819 4750 
Q 2544 4750 2975 4387 
Q 3406 4025 3406 3419 
Q 3406 3131 3298 2873 
Q 3191 2616 2906 2266 
Q 2828 2175 2409 1742 
Q 1991 1309 1228 531 
z
" transform="scale(0.015625)"/>
       </defs>
       <use xlink:href="#DejaVuSans-32"/>
      </g>
     </g>
    </g>
    <g id="xtick_2">
     <g id="line2d_2">
      <g>
       <use xlink:href="#m560208e05f" x="185.941259" y="384.48" style="stroke: #000000; stroke-width: 0.8"/>
      </g>
     </g>
     <g id="text_2">
      <!-- 4 -->
      <g transform="translate(182.760009 399.078438) scale(0.1 -0.1)">
       <defs>
        <path id="DejaVuSans-34" d="M 2419 4116 
L 825 1625 
L 2419 1625 
L 2419 4116 
z
M 2253 4666 
L 3047 4666 
L 3047 1625 
L 3713 1625 
L 3713 1100 
L 3047 1100 
L 3047 0 
L 2419 0 
L 2419 1100 
L 313 1100 
L 313 1709 
L 2253 4666 
z
" transform="scale(0.015625)"/>
       </defs>
       <use xlink:href="#DejaVuSans-34"/>
      </g>
     </g>
    </g>
    <g id="xtick_3">
     <g id="line2d_3">
      <g>
       <use xlink:href="#m560208e05f" x="248.374825" y="384.48" style="stroke: #000000; stroke-width: 0.8"/>
      </g>
     </g>
     <g id="text_3">
      <!-- 6 -->
      <g transform="translate(245.193575 399.078438) scale(0.1 -0.1)">
       <defs>
        <path id="DejaVuSans-36" d="M 2113 2584 
Q 1688 2584 1439 2293 
Q 1191 2003 1191 1497 
Q 1191 994 1439 701 
Q 1688 409 2113 409 
Q 2538 409 2786 701 
Q 3034 994 3034 1497 
Q 3034 2003 2786 2293 
Q 2538 2584 2113 2584 
z
M 3366 4563 
L 3366 3988 
Q 3128 4100 2886 4159 
Q 2644 4219 2406 4219 
Q 1781 4219 1451 3797 
Q 1122 3375 1075 2522 
Q 1259 2794 1537 2939 
Q 1816 3084 2150 3084 
Q 2853 3084 3261 2657 
Q 3669 2231 3669 1497 
Q 3669 778 3244 343 
Q 2819 -91 2113 -91 
Q 1303 -91 875 529 
Q 447 1150 447 2328 
Q 447 3434 972 4092 
Q 1497 4750 2381 4750 
Q 2619 4750 2861 4703 
Q 3103 4656 3366 4563 
z
" transform="scale(0.015625)"/>
       </defs>
       <use xlink:href="#DejaVuSans-36"/>
      </g>
     </g>
    </g>
    <g id="xtick_4">
     <g id="line2d_4">
      <g>
       <use xlink:href="#m560208e05f" x="310.808392" y="384.48" style="stroke: #000000; stroke-width: 0.8"/>
      </g>
     </g>
     <g id="text_4">
      <!-- 8 -->
      <g transform="translate(307.627142 399.078438) scale(0.1 -0.1)">
       <defs>
        <path id="DejaVuSans-38" d="M 2034 2216 
Q 1584 2216 1326 1975 
Q 1069 1734 1069 1313 
Q 1069 891 1326 650 
Q 1584 409 2034 409 
Q 2484 409 2743 651 
Q 3003 894 3003 1313 
Q 3003 1734 2745 1975 
Q 2488 2216 2034 2216 
z
M 1403 2484 
Q 997 2584 770 2862 
Q 544 3141 544 3541 
Q 544 4100 942 4425 
Q 1341 4750 2034 4750 
Q 2731 4750 3128 4425 
Q 3525 4100 3525 3541 
Q 3525 3141 3298 2862 
Q 3072 2584 2669 2484 
Q 3125 2378 3379 2068 
Q 3634 1759 3634 1313 
Q 3634 634 3220 271 
Q 2806 -91 2034 -91 
Q 1263 -91 848 271 
Q 434 634 434 1313 
Q 434 1759 690 2068 
Q 947 2378 1403 2484 
z
M 1172 3481 
Q 1172 3119 1398 2916 
Q 1625 2713 2034 2713 
Q 2441 2713 2670 2916 
Q 2900 3119 2900 3481 
Q 2900 3844 2670 4047 
Q 2441 4250 2034 4250 
Q 1625 4250 1398 4047 
Q 1172 3844 1172 3481 
z
" transform="scale(0.015625)"/>
       </defs>
       <use xlink:href="#DejaVuSans-38"/>
      </g>
     </g>
    </g>
    <g id="xtick_5">
     <g id="line2d_5">
      <g>
       <use xlink:href="#m560208e05f" x="373.241958" y="384.48" style="stroke: #000000; stroke-width: 0.8"/>
      </g>
     </g>
     <g id="text_5">
      <!-- 10 -->
      <g transform="translate(366.879458 399.078438) scale(0.1 -0.1)">
       <defs>
        <path id="DejaVuSans-31" d="M 794 531 
L 1825 531 
L 1825 4091 
L 703 3866 
L 703 4441 
L 1819 4666 
L 2450 4666 
L 2450 531 
L 3481 531 
L 3481 0 
L 794 0 
L 794 531 
z
" transform="scale(0.015625)"/>
        <path id="DejaVuSans-30" d="M 2034 4250 
Q 1547 4250 1301 3770 
Q 1056 3291 1056 2328 
Q 1056 1369 1301 889 
Q 1547 409 2034 409 
Q 2525 409 2770 889 
Q 3016 1369 3016 2328 
Q 3016 3291 2770 3770 
Q 2525 4250 2034 4250 
z
M 2034 4750 
Q 2819 4750 3233 4129 
Q 3647 3509 3647 2328 
Q 3647 1150 3233 529 
Q 2819 -91 2034 -91 
Q 1250 -91 836 529 
Q 422 1150 422 2328 
Q 422 3509 836 4129 
Q 1250 4750 2034 4750 
z
" transform="scale(0.015625)"/>
       </defs>
       <use xlink:href="#DejaVuSans-31"/>
       <use xlink:href="#DejaVuSans-30" x="63.623047"/>
      </g>
     </g>
    </g>
    <g id="xtick_6">
     <g id="line2d_6">
      <g>
       <use xlink:href="#m560208e05f" x="435.675524" y="384.48" style="stroke: #000000; stroke-width: 0.8"/>
      </g>
     </g>
     <g id="text_6">
      <!-- 12 -->
      <g transform="translate(429.313024 399.078438) scale(0.1 -0.1)">
       <use xlink:href="#DejaVuSans-31"/>
       <use xlink:href="#DejaVuSans-32" x="63.623047"/>
      </g>
     </g>
    </g>
    <g id="xtick_7">
     <g id="line2d_7">
      <g>
       <use xlink:href="#m560208e05f" x="498.109091" y="384.48" style="stroke: #000000; stroke-width: 0.8"/>
      </g>
     </g>
     <g id="text_7">
      <!-- 14 -->
      <g transform="translate(491.746591 399.078438) scale(0.1 -0.1)">
       <use xlink:href="#DejaVuSans-31"/>
       <use xlink:href="#DejaVuSans-34" x="63.623047"/>
      </g>
     </g>
    </g>
    <g id="text_8">
     <!-- Data Points -->
     <g transform="translate(266.657031 412.756563) scale(0.1 -0.1)">
      <defs>
       <path id="DejaVuSans-44" d="M 1259 4147 
L 1259 519 
L 2022 519 
Q 2988 519 3436 956 
Q 3884 1394 3884 2338 
Q 3884 3275 3436 3711 
Q 2988 4147 2022 4147 
L 1259 4147 
z
M 628 4666 
L 1925 4666 
Q 3281 4666 3915 4102 
Q 4550 3538 4550 2338 
Q 4550 1131 3912 565 
Q 3275 0 1925 0 
L 628 0 
L 628 4666 
z
" transform="scale(0.015625)"/>
       <path id="DejaVuSans-61" d="M 2194 1759 
Q 1497 1759 1228 1600 
Q 959 1441 959 1056 
Q 959 750 1161 570 
Q 1363 391 1709 391 
Q 2188 391 2477 730 
Q 2766 1069 2766 1631 
L 2766 1759 
L 2194 1759 
z
M 3341 1997 
L 3341 0 
L 2766 0 
L 2766 531 
Q 2569 213 2275 61 
Q 1981 -91 1556 -91 
Q 1019 -91 701 211 
Q 384 513 384 1019 
Q 384 1609 779 1909 
Q 1175 2209 1959 2209 
L 2766 2209 
L 2766 2266 
Q 2766 2663 2505 2880 
Q 2244 3097 1772 3097 
Q 1472 3097 1187 3025 
Q 903 2953 641 2809 
L 641 3341 
Q 956 3463 1253 3523 
Q 1550 3584 1831 3584 
Q 2591 3584 2966 3190 
Q 3341 2797 3341 1997 
z
" transform="scale(0.015625)"/>
       <path id="DejaVuSans-74" d="M 1172 4494 
L 1172 3500 
L 2356 3500 
L 2356 3053 
L 1172 3053 
L 1172 1153 
Q 1172 725 1289 603 
Q 1406 481 1766 481 
L 2356 481 
L 2356 0 
L 1766 0 
Q 1100 0 847 248 
Q 594 497 594 1153 
L 594 3053 
L 172 3053 
L 172 3500 
L 594 3500 
L 594 4494 
L 1172 4494 
z
" transform="scale(0.015625)"/>
       <path id="DejaVuSans-20" transform="scale(0.015625)"/>
       <path id="DejaVuSans-50" d="M 1259 4147 
L 1259 2394 
L 2053 2394 
Q 2494 2394 2734 2622 
Q 2975 2850 2975 3272 
Q 2975 3691 2734 3919 
Q 2494 4147 2053 4147 
L 1259 4147 
z
M 628 4666 
L 2053 4666 
Q 2838 4666 3239 4311 
Q 3641 3956 3641 3272 
Q 3641 2581 3239 2228 
Q 2838 1875 2053 1875 
L 1259 1875 
L 1259 0 
L 628 0 
L 628 4666 
z
" transform="scale(0.015625)"/>
       <path id="DejaVuSans-6f" d="M 1959 3097 
Q 1497 3097 1228 2736 
Q 959 2375 959 1747 
Q 959 1119 1226 758 
Q 1494 397 1959 397 
Q 2419 397 2687 759 
Q 2956 1122 2956 1747 
Q 2956 2369 2687 2733 
Q 2419 3097 1959 3097 
z
M 1959 3584 
Q 2709 3584 3137 3096 
Q 3566 2609 3566 1747 
Q 3566 888 3137 398 
Q 2709 -91 1959 -91 
Q 1206 -91 779 398 
Q 353 888 353 1747 
Q 353 2609 779 3096 
Q 1206 3584 1959 3584 
z
" transform="scale(0.015625)"/>
       <path id="DejaVuSans-69" d="M 603 3500 
L 1178 3500 
L 1178 0 
L 603 0 
L 603 3500 
z
M 603 4863 
L 1178 4863 
L 1178 4134 
L 603 4134 
L 603 4863 
z
" transform="scale(0.015625)"/>
       <path id="DejaVuSans-6e" d="M 3513 2113 
L 3513 0 
L 2938 0 
L 2938 2094 
Q 2938 2591 2744 2837 
Q 2550 3084 2163 3084 
Q 1697 3084 1428 2787 
Q 1159 2491 1159 1978 
L 1159 0 
L 581 0 
L 581 3500 
L 1159 3500 
L 1159 2956 
Q 1366 3272 1645 3428 
Q 1925 3584 2291 3584 
Q 2894 3584 3203 3211 
Q 3513 2838 3513 2113 
z
" transform="scale(0.015625)"/>
       <path id="DejaVuSans-73" d="M 2834 3397 
L 2834 2853 
Q 2591 2978 2328 3040 
Q 2066 3103 1784 3103 
Q 1356 3103 1142 2972 
Q 928 2841 928 2578 
Q 928 2378 1081 2264 
Q 1234 2150 1697 2047 
L 1894 2003 
Q 2506 1872 2764 1633 
Q 3022 1394 3022 966 
Q 3022 478 2636 193 
Q 2250 -91 1575 -91 
Q 1294 -91 989 -36 
Q 684 19 347 128 
L 347 722 
Q 666 556 975 473 
Q 1284 391 1588 391 
Q 1994 391 2212 530 
Q 2431 669 2431 922 
Q 2431 1156 2273 1281 
Q 2116 1406 1581 1522 
L 1381 1569 
Q 847 1681 609 1914 
Q 372 2147 372 2553 
Q 372 3047 722 3315 
Q 1072 3584 1716 3584 
Q 2034 3584 2315 3537 
Q 2597 3491 2834 3397 
z
" transform="scale(0.015625)"/>
      </defs>
      <use xlink:href="#DejaVuSans-44"/>
      <use xlink:href="#DejaVuSans-61" x="77.001953"/>
      <use xlink:href="#DejaVuSans-74" x="138.28125"/>
      <use xlink:href="#DejaVuSans-61" x="177.490234"/>
      <use xlink:href="#DejaVuSans-20" x="238.769531"/>
      <use xlink:href="#DejaVuSans-50" x="270.556641"/>
      <use xlink:href="#DejaVuSans-6f" x="327.234375"/>
      <use xlink:href="#DejaVuSans-69" x="388.416016"/>
      <use xlink:href="#DejaVuSans-6e" x="416.199219"/>
      <use xlink:href="#DejaVuSans-74" x="479.578125"/>
      <use xlink:href="#DejaVuSans-73" x="518.787109"/>
     </g>
    </g>
   </g>
   <g id="matplotlib.axis_2">
    <g id="ytick_1">
     <g id="line2d_8">
      <defs>
       <path id="mefc5a321f4" d="M 0 0 
L -3.5 0 
" style="stroke: #000000; stroke-width: 0.8"/>
      </defs>
      <g>
       <use xlink:href="#mefc5a321f4" x="72" y="352.446426" style="stroke: #000000; stroke-width: 0.8"/>
      </g>
     </g>
     <g id="text_9">
      <!-- 0.0 -->
      <g transform="translate(49.096875 356.245645) scale(0.1 -0.1)">
       <defs>
        <path id="DejaVuSans-2e" d="M 684 794 
L 1344 794 
L 1344 0 
L 684 0 
L 684 794 
z
" transform="scale(0.015625)"/>
       </defs>
       <use xlink:href="#DejaVuSans-30"/>
       <use xlink:href="#DejaVuSans-2e" x="63.623047"/>
       <use xlink:href="#DejaVuSans-30" x="95.410156"/>
      </g>
     </g>
    </g>
    <g id="ytick_2">
     <g id="line2d_9">
      <g>
       <use xlink:href="#mefc5a321f4" x="72" y="295.777452" style="stroke: #000000; stroke-width: 0.8"/>
      </g>
     </g>
     <g id="text_10">
      <!-- 0.2 -->
      <g transform="translate(49.096875 299.576671) scale(0.1 -0.1)">
       <use xlink:href="#DejaVuSans-30"/>
       <use xlink:href="#DejaVuSans-2e" x="63.623047"/>
       <use xlink:href="#DejaVuSans-32" x="95.410156"/>
      </g>
     </g>
    </g>
    <g id="ytick_3">
     <g id="line2d_10">
      <g>
       <use xlink:href="#mefc5a321f4" x="72" y="239.108477" style="stroke: #000000; stroke-width: 0.8"/>
      </g>
     </g>
     <g id="text_11">
      <!-- 0.4 -->
      <g transform="translate(49.096875 242.907696) scale(0.1 -0.1)">
       <use xlink:href="#DejaVuSans-30"/>
       <use xlink:href="#DejaVuSans-2e" x="63.623047"/>
       <use xlink:href="#DejaVuSans-34" x="95.410156"/>
      </g>
     </g>
    </g>
    <g id="ytick_4">
     <g id="line2d_11">
      <g>
       <use xlink:href="#mefc5a321f4" x="72" y="182.439503" style="stroke: #000000; stroke-width: 0.8"/>
      </g>
     </g>
     <g id="text_12">
      <!-- 0.6 -->
      <g transform="translate(49.096875 186.238722) scale(0.1 -0.1)">
       <use xlink:href="#DejaVuSans-30"/>
       <use xlink:href="#DejaVuSans-2e" x="63.623047"/>
       <use xlink:href="#DejaVuSans-36" x="95.410156"/>
      </g>
     </g>
    </g>
    <g id="ytick_5">
     <g id="line2d_12">
      <g>
       <use xlink:href="#mefc5a321f4" x="72" y="125.770529" style="stroke: #000000; stroke-width: 0.8"/>
      </g>
     </g>
     <g id="text_13">
      <!-- 0.8 -->
      <g transform="translate(49.096875 129.569748) scale(0.1 -0.1)">
       <use xlink:href="#DejaVuSans-30"/>
       <use xlink:href="#DejaVuSans-2e" x="63.623047"/>
       <use xlink:href="#DejaVuSans-38" x="95.410156"/>
      </g>
     </g>
    </g>
    <g id="ytick_6">
     <g id="line2d_13">
      <g>
       <use xlink:href="#mefc5a321f4" x="72" y="69.101554" style="stroke: #000000; stroke-width: 0.8"/>
      </g>
     </g>
     <g id="text_14">
      <!-- 1.0 -->
      <g transform="translate(49.096875 72.900773) scale(0.1 -0.1)">
       <use xlink:href="#DejaVuSans-31"/>
       <use xlink:href="#DejaVuSans-2e" x="63.623047"/>
       <use xlink:href="#DejaVuSans-30" x="95.410156"/>
      </g>
     </g>
    </g>
    <g id="text_15">
     <!-- Values -->
     <g transform="translate(43.017187 234.495937) rotate(-90) scale(0.1 -0.1)">
      <defs>
       <path id="DejaVuSans-56" d="M 1831 0 
L 50 4666 
L 709 4666 
L 2188 738 
L 3669 4666 
L 4325 4666 
L 2547 0 
L 1831 0 
z
" transform="scale(0.015625)"/>
       <path id="DejaVuSans-6c" d="M 603 4863 
L 1178 4863 
L 1178 0 
L 603 0 
L 603 4863 
z
" transform="scale(0.015625)"/>
       <path id="DejaVuSans-75" d="M 544 1381 
L 544 3500 
L 1119 3500 
L 1119 1403 
Q 1119 906 1312 657 
Q 1506 409 1894 409 
Q 2359 409 2629 706 
Q 2900 1003 2900 1516 
L 2900 3500 
L 3475 3500 
L 3475 0 
L 2900 0 
L 2900 538 
Q 2691 219 2414 64 
Q 2138 -91 1772 -91 
Q 1169 -91 856 284 
Q 544 659 544 1381 
z
M 1991 3584 
L 1991 3584 
z
" transform="scale(0.015625)"/>
       <path id="DejaVuSans-65" d="M 3597 1894 
L 3597 1613 
L 953 1613 
Q 991 1019 1311 708 
Q 1631 397 2203 397 
Q 2534 397 2845 478 
Q 3156 559 3463 722 
L 3463 178 
Q 3153 47 2828 -22 
Q 2503 -91 2169 -91 
Q 1331 -91 842 396 
Q 353 884 353 1716 
Q 353 2575 817 3079 
Q 1281 3584 2069 3584 
Q 2775 3584 3186 3129 
Q 3597 2675 3597 1894 
z
M 3022 2063 
Q 3016 2534 2758 2815 
Q 2500 3097 2075 3097 
Q 1594 3097 1305 2825 
Q 1016 2553 972 2059 
L 3022 2063 
z
" transform="scale(0.015625)"/>
      </defs>
      <use xlink:href="#DejaVuSans-56"/>
      <use xlink:href="#DejaVuSans-61" x="60.658203"/>
      <use xlink:href="#DejaVuSans-6c" x="121.9375"/>
      <use xlink:href="#DejaVuSans-75" x="149.720703"/>
      <use xlink:href="#DejaVuSans-65" x="213.099609"/>
      <use xlink:href="#DejaVuSans-73" x="274.623047"/>
     </g>
    </g>
   </g>
   <g id="line2d_14">
    <path d="M 92.290909 71.721997 
L 123.507692 70.599584 
L 154.724476 71.437887 
L 185.941259 71.912779 
L 217.158042 70.308539 
L 248.374825 72.550508 
L 279.591608 70.911298 
L 310.808392 72.318128 
L 342.025175 71.403147 
L 373.241958 69.827072 
L 404.458741 353.45604 
L 435.675524 71.417332 
L 466.892308 85.332734 
L 498.109091 71.475264 
" clip-path="url(#pcff5c1a58d)" style="fill: none; stroke: #0000ff; stroke-width: 1.5; stroke-linecap: square"/>
    <defs>
     <path id="m7139f8a747" d="M 0 3 
C 0.795609 3 1.55874 2.683901 2.12132 2.12132 
C 2.683901 1.55874 3 0.795609 3 0 
C 3 -0.795609 2.683901 -1.55874 2.12132 -2.12132 
C 1.55874 -2.683901 0.795609 -3 0 -3 
C -0.795609 -3 -1.55874 -2.683901 -2.12132 -2.12132 
C -2.683901 -1.55874 -3 -0.795609 -3 0 
C -3 0.795609 -2.683901 1.55874 -2.12132 2.12132 
C -1.55874 2.683901 -0.795609 3 0 3 
z
" style="stroke: #0000ff"/>
    </defs>
    <g clip-path="url(#pcff5c1a58d)">
     <use xlink:href="#m7139f8a747" x="92.290909" y="71.721997" style="fill: #0000ff; stroke: #0000ff"/>
     <use xlink:href="#m7139f8a747" x="123.507692" y="70.599584" style="fill: #0000ff; stroke: #0000ff"/>
     <use xlink:href="#m7139f8a747" x="154.724476" y="71.437887" style="fill: #0000ff; stroke: #0000ff"/>
     <use xlink:href="#m7139f8a747" x="185.941259" y="71.912779" style="fill: #0000ff; stroke: #0000ff"/>
     <use xlink:href="#m7139f8a747" x="217.158042" y="70.308539" style="fill: #0000ff; stroke: #0000ff"/>
     <use xlink:href="#m7139f8a747" x="248.374825" y="72.550508" style="fill: #0000ff; stroke: #0000ff"/>
     <use xlink:href="#m7139f8a747" x="279.591608" y="70.911298" style="fill: #0000ff; stroke: #0000ff"/>
     <use xlink:href="#m7139f8a747" x="310.808392" y="72.318128" style="fill: #0000ff; stroke: #0000ff"/>
     <use xlink:href="#m7139f8a747" x="342.025175" y="71.403147" style="fill: #0000ff; stroke: #0000ff"/>
     <use xlink:href="#m7139f8a747" x="373.241958" y="69.827072" style="fill: #0000ff; stroke: #0000ff"/>
     <use xlink:href="#m7139f8a747" x="404.458741" y="353.45604" style="fill: #0000ff; stroke: #0000ff"/>
     <use xlink:href="#m7139f8a747" x="435.675524" y="71.417332" style="fill: #0000ff; stroke: #0000ff"/>
     <use xlink:href="#m7139f8a747" x="466.892308" y="85.332734" style="fill: #0000ff; stroke: #0000ff"/>
     <use xlink:href="#m7139f8a747" x="498.109091" y="71.475264" style="fill: #0000ff; stroke: #0000ff"/>
    </g>
   </g>
   <g id="line2d_15">
    <path d="M 92.290909 349.825984 
L 123.507692 350.948396 
L 154.724476 350.110094 
L 185.941259 349.635202 
L 217.158042 351.239441 
L 248.374825 348.997473 
L 279.591608 350.636683 
L 310.808392 349.229852 
L 342.025175 350.144833 
L 373.241958 351.720908 
L 404.458741 68.09194 
L 435.675524 350.130648 
L 466.892308 336.215247 
L 498.109091 350.072716 
" clip-path="url(#pcff5c1a58d)" style="fill: none; stroke: #008000; stroke-width: 1.5; stroke-linecap: square"/>
    <defs>
     <path id="m90f50a483f" d="M 0 3 
C 0.795609 3 1.55874 2.683901 2.12132 2.12132 
C 2.683901 1.55874 3 0.795609 3 0 
C 3 -0.795609 2.683901 -1.55874 2.12132 -2.12132 
C 1.55874 -2.683901 0.795609 -3 0 -3 
C -0.795609 -3 -1.55874 -2.683901 -2.12132 -2.12132 
C -2.683901 -1.55874 -3 -0.795609 -3 0 
C -3 0.795609 -2.683901 1.55874 -2.12132 2.12132 
C -1.55874 2.683901 -0.795609 3 0 3 
z
" style="stroke: #008000"/>
    </defs>
    <g clip-path="url(#pcff5c1a58d)">
     <use xlink:href="#m90f50a483f" x="92.290909" y="349.825984" style="fill: #008000; stroke: #008000"/>
     <use xlink:href="#m90f50a483f" x="123.507692" y="350.948396" style="fill: #008000; stroke: #008000"/>
     <use xlink:href="#m90f50a483f" x="154.724476" y="350.110094" style="fill: #008000; stroke: #008000"/>
     <use xlink:href="#m90f50a483f" x="185.941259" y="349.635202" style="fill: #008000; stroke: #008000"/>
     <use xlink:href="#m90f50a483f" x="217.158042" y="351.239441" style="fill: #008000; stroke: #008000"/>
     <use xlink:href="#m90f50a483f" x="248.374825" y="348.997473" style="fill: #008000; stroke: #008000"/>
     <use xlink:href="#m90f50a483f" x="279.591608" y="350.636683" style="fill: #008000; stroke: #008000"/>
     <use xlink:href="#m90f50a483f" x="310.808392" y="349.229852" style="fill: #008000; stroke: #008000"/>
     <use xlink:href="#m90f50a483f" x="342.025175" y="350.144833" style="fill: #008000; stroke: #008000"/>
     <use xlink:href="#m90f50a483f" x="373.241958" y="351.720908" style="fill: #008000; stroke: #008000"/>
     <use xlink:href="#m90f50a483f" x="404.458741" y="68.09194" style="fill: #008000; stroke: #008000"/>
     <use xlink:href="#m90f50a483f" x="435.675524" y="350.130648" style="fill: #008000; stroke: #008000"/>
     <use xlink:href="#m90f50a483f" x="466.892308" y="336.215247" style="fill: #008000; stroke: #008000"/>
     <use xlink:href="#m90f50a483f" x="498.109091" y="350.072716" style="fill: #008000; stroke: #008000"/>
    </g>
   </g>
   <g id="line2d_16">
    <path d="M 92.290909 352.446426 
L 123.507692 352.446426 
L 154.724476 352.446426 
L 185.941259 352.446426 
L 217.158042 352.446426 
L 248.374825 352.446426 
L 279.591608 352.446426 
L 310.808392 352.446426 
L 342.025175 352.446426 
L 373.241958 352.446426 
L 404.458741 352.446426 
L 435.675524 352.446426 
L 466.892308 352.446426 
L 498.109091 352.446426 
" clip-path="url(#pcff5c1a58d)" style="fill: none; stroke: #ffa500; stroke-width: 1.5; stroke-linecap: square"/>
    <defs>
     <path id="m048416d97e" d="M 0 3 
C 0.795609 3 1.55874 2.683901 2.12132 2.12132 
C 2.683901 1.55874 3 0.795609 3 0 
C 3 -0.795609 2.683901 -1.55874 2.12132 -2.12132 
C 1.55874 -2.683901 0.795609 -3 0 -3 
C -0.795609 -3 -1.55874 -2.683901 -2.12132 -2.12132 
C -2.683901 -1.55874 -3 -0.795609 -3 0 
C -3 0.795609 -2.683901 1.55874 -2.12132 2.12132 
C -1.55874 2.683901 -0.795609 3 0 3 
z
" style="stroke: #ffa500"/>
    </defs>
    <g clip-path="url(#pcff5c1a58d)">
     <use xlink:href="#m048416d97e" x="92.290909" y="352.446426" style="fill: #ffa500; stroke: #ffa500"/>
     <use xlink:href="#m048416d97e" x="123.507692" y="352.446426" style="fill: #ffa500; stroke: #ffa500"/>
     <use xlink:href="#m048416d97e" x="154.724476" y="352.446426" style="fill: #ffa500; stroke: #ffa500"/>
     <use xlink:href="#m048416d97e" x="185.941259" y="352.446426" style="fill: #ffa500; stroke: #ffa500"/>
     <use xlink:href="#m048416d97e" x="217.158042" y="352.446426" style="fill: #ffa500; stroke: #ffa500"/>
     <use xlink:href="#m048416d97e" x="248.374825" y="352.446426" style="fill: #ffa500; stroke: #ffa500"/>
     <use xlink:href="#m048416d97e" x="279.591608" y="352.446426" style="fill: #ffa500; stroke: #ffa500"/>
     <use xlink:href="#m048416d97e" x="310.808392" y="352.446426" style="fill: #ffa500; stroke: #ffa500"/>
     <use xlink:href="#m048416d97e" x="342.025175" y="352.446426" style="fill: #ffa500; stroke: #ffa500"/>
     <use xlink:href="#m048416d97e" x="373.241958" y="352.446426" style="fill: #ffa500; stroke: #ffa500"/>
     <use xlink:href="#m048416d97e" x="404.458741" y="352.446426" style="fill: #ffa500; stroke: #ffa500"/>
     <use xlink:href="#m048416d97e" x="435.675524" y="352.446426" style="fill: #ffa500; stroke: #ffa500"/>
     <use xlink:href="#m048416d97e" x="466.892308" y="352.446426" style="fill: #ffa500; stroke: #ffa500"/>
     <use xlink:href="#m048416d97e" x="498.109091" y="352.446426" style="fill: #ffa500; stroke: #ffa500"/>
    </g>
   </g>
   <g id="line2d_17">
    <path d="M 92.290909 351.23187 
L 123.507692 344.953082 
L 154.724476 354.766504 
L 185.941259 344.455719 
L 217.158042 334.998221 
L 248.374825 344.134757 
L 279.591608 356.285255 
L 310.808392 336.668694 
L 342.025175 354.365997 
L 373.241958 353.995335 
L 404.458741 369.36 
L 435.675524 351.713913 
L 466.892308 353.8965 
L 498.109091 353.400688 
" clip-path="url(#pcff5c1a58d)" style="fill: none; stroke: #ff0000; stroke-width: 1.5; stroke-linecap: square"/>
    <defs>
     <path id="m87a20944c0" d="M 0 3 
C 0.795609 3 1.55874 2.683901 2.12132 2.12132 
C 2.683901 1.55874 3 0.795609 3 0 
C 3 -0.795609 2.683901 -1.55874 2.12132 -2.12132 
C 1.55874 -2.683901 0.795609 -3 0 -3 
C -0.795609 -3 -1.55874 -2.683901 -2.12132 -2.12132 
C -2.683901 -1.55874 -3 -0.795609 -3 0 
C -3 0.795609 -2.683901 1.55874 -2.12132 2.12132 
C -1.55874 2.683901 -0.795609 3 0 3 
z
" style="stroke: #ff0000"/>
    </defs>
    <g clip-path="url(#pcff5c1a58d)">
     <use xlink:href="#m87a20944c0" x="92.290909" y="351.23187" style="fill: #ff0000; stroke: #ff0000"/>
     <use xlink:href="#m87a20944c0" x="123.507692" y="344.953082" style="fill: #ff0000; stroke: #ff0000"/>
     <use xlink:href="#m87a20944c0" x="154.724476" y="354.766504" style="fill: #ff0000; stroke: #ff0000"/>
     <use xlink:href="#m87a20944c0" x="185.941259" y="344.455719" style="fill: #ff0000; stroke: #ff0000"/>
     <use xlink:href="#m87a20944c0" x="217.158042" y="334.998221" style="fill: #ff0000; stroke: #ff0000"/>
     <use xlink:href="#m87a20944c0" x="248.374825" y="344.134757" style="fill: #ff0000; stroke: #ff0000"/>
     <use xlink:href="#m87a20944c0" x="279.591608" y="356.285255" style="fill: #ff0000; stroke: #ff0000"/>
     <use xlink:href="#m87a20944c0" x="310.808392" y="336.668694" style="fill: #ff0000; stroke: #ff0000"/>
     <use xlink:href="#m87a20944c0" x="342.025175" y="354.365997" style="fill: #ff0000; stroke: #ff0000"/>
     <use xlink:href="#m87a20944c0" x="373.241958" y="353.995335" style="fill: #ff0000; stroke: #ff0000"/>
     <use xlink:href="#m87a20944c0" x="404.458741" y="369.36" style="fill: #ff0000; stroke: #ff0000"/>
     <use xlink:href="#m87a20944c0" x="435.675524" y="351.713913" style="fill: #ff0000; stroke: #ff0000"/>
     <use xlink:href="#m87a20944c0" x="466.892308" y="353.8965" style="fill: #ff0000; stroke: #ff0000"/>
     <use xlink:href="#m87a20944c0" x="498.109091" y="353.400688" style="fill: #ff0000; stroke: #ff0000"/>
    </g>
   </g>
   <g id="line2d_18">
    <path d="M 92.290909 69.101554 
L 123.507692 69.101554 
L 154.724476 69.101554 
L 185.941259 69.101554 
L 217.158042 69.101554 
L 248.374825 69.101554 
L 279.591608 69.101554 
L 310.808392 69.101554 
L 342.025175 69.101554 
L 373.241958 69.101554 
L 404.458741 69.101554 
L 435.675524 69.101554 
L 466.892308 69.101554 
L 498.109091 69.101554 
" clip-path="url(#pcff5c1a58d)" style="fill: none; stroke: #808080; stroke-width: 1.5; stroke-linecap: square"/>
    <defs>
     <path id="m745bc9ff31" d="M 0 3 
C 0.795609 3 1.55874 2.683901 2.12132 2.12132 
C 2.683901 1.55874 3 0.795609 3 0 
C 3 -0.795609 2.683901 -1.55874 2.12132 -2.12132 
C 1.55874 -2.683901 0.795609 -3 0 -3 
C -0.795609 -3 -1.55874 -2.683901 -2.12132 -2.12132 
C -2.683901 -1.55874 -3 -0.795609 -3 0 
C -3 0.795609 -2.683901 1.55874 -2.12132 2.12132 
C -1.55874 2.683901 -0.795609 3 0 3 
z
" style="stroke: #808080"/>
    </defs>
    <g clip-path="url(#pcff5c1a58d)">
     <use xlink:href="#m745bc9ff31" x="92.290909" y="69.101554" style="fill: #808080; stroke: #808080"/>
     <use xlink:href="#m745bc9ff31" x="123.507692" y="69.101554" style="fill: #808080; stroke: #808080"/>
     <use xlink:href="#m745bc9ff31" x="154.724476" y="69.101554" style="fill: #808080; stroke: #808080"/>
     <use xlink:href="#m745bc9ff31" x="185.941259" y="69.101554" style="fill: #808080; stroke: #808080"/>
     <use xlink:href="#m745bc9ff31" x="217.158042" y="69.101554" style="fill: #808080; stroke: #808080"/>
     <use xlink:href="#m745bc9ff31" x="248.374825" y="69.101554" style="fill: #808080; stroke: #808080"/>
     <use xlink:href="#m745bc9ff31" x="279.591608" y="69.101554" style="fill: #808080; stroke: #808080"/>
     <use xlink:href="#m745bc9ff31" x="310.808392" y="69.101554" style="fill: #808080; stroke: #808080"/>
     <use xlink:href="#m745bc9ff31" x="342.025175" y="69.101554" style="fill: #808080; stroke: #808080"/>
     <use xlink:href="#m745bc9ff31" x="373.241958" y="69.101554" style="fill: #808080; stroke: #808080"/>
     <use xlink:href="#m745bc9ff31" x="404.458741" y="69.101554" style="fill: #808080; stroke: #808080"/>
     <use xlink:href="#m745bc9ff31" x="435.675524" y="69.101554" style="fill: #808080; stroke: #808080"/>
     <use xlink:href="#m745bc9ff31" x="466.892308" y="69.101554" style="fill: #808080; stroke: #808080"/>
     <use xlink:href="#m745bc9ff31" x="498.109091" y="69.101554" style="fill: #808080; stroke: #808080"/>
    </g>
   </g>
   <g id="line2d_19">
    <path d="M 92.290909 96.094804 
L 123.507692 88.280897 
L 154.724476 94.598507 
L 185.941259 96.169888 
L 217.158042 66.96 
L 248.374825 99.236291 
L 279.591608 91.418475 
L 310.808392 94.623038 
L 342.025175 94.560874 
L 373.241958 83.335749 
L 404.458741 352.446426 
L 435.675524 94.706077 
L 466.892308 134.069512 
L 498.109091 95.0181 
" clip-path="url(#pcff5c1a58d)" style="fill: none; stroke: #000000; stroke-width: 1.5; stroke-linecap: square"/>
    <defs>
     <path id="m76b0dcf937" d="M 0 3 
C 0.795609 3 1.55874 2.683901 2.12132 2.12132 
C 2.683901 1.55874 3 0.795609 3 0 
C 3 -0.795609 2.683901 -1.55874 2.12132 -2.12132 
C 1.55874 -2.683901 0.795609 -3 0 -3 
C -0.795609 -3 -1.55874 -2.683901 -2.12132 -2.12132 
C -2.683901 -1.55874 -3 -0.795609 -3 0 
C -3 0.795609 -2.683901 1.55874 -2.12132 2.12132 
C -1.55874 2.683901 -0.795609 3 0 3 
z
" style="stroke: #000000"/>
    </defs>
    <g clip-path="url(#pcff5c1a58d)">
     <use xlink:href="#m76b0dcf937" x="92.290909" y="96.094804" style="stroke: #000000"/>
     <use xlink:href="#m76b0dcf937" x="123.507692" y="88.280897" style="stroke: #000000"/>
     <use xlink:href="#m76b0dcf937" x="154.724476" y="94.598507" style="stroke: #000000"/>
     <use xlink:href="#m76b0dcf937" x="185.941259" y="96.169888" style="stroke: #000000"/>
     <use xlink:href="#m76b0dcf937" x="217.158042" y="66.96" style="stroke: #000000"/>
     <use xlink:href="#m76b0dcf937" x="248.374825" y="99.236291" style="stroke: #000000"/>
     <use xlink:href="#m76b0dcf937" x="279.591608" y="91.418475" style="stroke: #000000"/>
     <use xlink:href="#m76b0dcf937" x="310.808392" y="94.623038" style="stroke: #000000"/>
     <use xlink:href="#m76b0dcf937" x="342.025175" y="94.560874" style="stroke: #000000"/>
     <use xlink:href="#m76b0dcf937" x="373.241958" y="83.335749" style="stroke: #000000"/>
     <use xlink:href="#m76b0dcf937" x="404.458741" y="352.446426" style="stroke: #000000"/>
     <use xlink:href="#m76b0dcf937" x="435.675524" y="94.706077" style="stroke: #000000"/>
     <use xlink:href="#m76b0dcf937" x="466.892308" y="134.069512" style="stroke: #000000"/>
     <use xlink:href="#m76b0dcf937" x="498.109091" y="95.0181" style="stroke: #000000"/>
    </g>
   </g>
   <g id="patch_3">
    <path d="M 72 384.48 
L 72 51.84 
" style="fill: none; stroke: #000000; stroke-width: 0.8; stroke-linejoin: miter; stroke-linecap: square"/>
   </g>
   <g id="patch_4">
    <path d="M 518.4 384.48 
L 518.4 51.84 
" style="fill: none; stroke: #000000; stroke-width: 0.8; stroke-linejoin: miter; stroke-linecap: square"/>
   </g>
   <g id="patch_5">
    <path d="M 72 384.48 
L 518.4 384.48 
" style="fill: none; stroke: #000000; stroke-width: 0.8; stroke-linejoin: miter; stroke-linecap: square"/>
   </g>
   <g id="patch_6">
    <path d="M 72 51.84 
L 518.4 51.84 
" style="fill: none; stroke: #000000; stroke-width: 0.8; stroke-linejoin: miter; stroke-linecap: square"/>
   </g>
   <g id="text_16">
    <!-- R-squared and MSE Values -->
    <g transform="translate(215.470312 45.84) scale(0.12 -0.12)">
     <defs>
      <path id="DejaVuSans-52" d="M 2841 2188 
Q 3044 2119 3236 1894 
Q 3428 1669 3622 1275 
L 4263 0 
L 3584 0 
L 2988 1197 
Q 2756 1666 2539 1819 
Q 2322 1972 1947 1972 
L 1259 1972 
L 1259 0 
L 628 0 
L 628 4666 
L 2053 4666 
Q 2853 4666 3247 4331 
Q 3641 3997 3641 3322 
Q 3641 2881 3436 2590 
Q 3231 2300 2841 2188 
z
M 1259 4147 
L 1259 2491 
L 2053 2491 
Q 2509 2491 2742 2702 
Q 2975 2913 2975 3322 
Q 2975 3731 2742 3939 
Q 2509 4147 2053 4147 
L 1259 4147 
z
" transform="scale(0.015625)"/>
      <path id="DejaVuSans-2d" d="M 313 2009 
L 1997 2009 
L 1997 1497 
L 313 1497 
L 313 2009 
z
" transform="scale(0.015625)"/>
      <path id="DejaVuSans-71" d="M 947 1747 
Q 947 1113 1208 752 
Q 1469 391 1925 391 
Q 2381 391 2643 752 
Q 2906 1113 2906 1747 
Q 2906 2381 2643 2742 
Q 2381 3103 1925 3103 
Q 1469 3103 1208 2742 
Q 947 2381 947 1747 
z
M 2906 525 
Q 2725 213 2448 61 
Q 2172 -91 1784 -91 
Q 1150 -91 751 415 
Q 353 922 353 1747 
Q 353 2572 751 3078 
Q 1150 3584 1784 3584 
Q 2172 3584 2448 3432 
Q 2725 3281 2906 2969 
L 2906 3500 
L 3481 3500 
L 3481 -1331 
L 2906 -1331 
L 2906 525 
z
" transform="scale(0.015625)"/>
      <path id="DejaVuSans-72" d="M 2631 2963 
Q 2534 3019 2420 3045 
Q 2306 3072 2169 3072 
Q 1681 3072 1420 2755 
Q 1159 2438 1159 1844 
L 1159 0 
L 581 0 
L 581 3500 
L 1159 3500 
L 1159 2956 
Q 1341 3275 1631 3429 
Q 1922 3584 2338 3584 
Q 2397 3584 2469 3576 
Q 2541 3569 2628 3553 
L 2631 2963 
z
" transform="scale(0.015625)"/>
      <path id="DejaVuSans-64" d="M 2906 2969 
L 2906 4863 
L 3481 4863 
L 3481 0 
L 2906 0 
L 2906 525 
Q 2725 213 2448 61 
Q 2172 -91 1784 -91 
Q 1150 -91 751 415 
Q 353 922 353 1747 
Q 353 2572 751 3078 
Q 1150 3584 1784 3584 
Q 2172 3584 2448 3432 
Q 2725 3281 2906 2969 
z
M 947 1747 
Q 947 1113 1208 752 
Q 1469 391 1925 391 
Q 2381 391 2643 752 
Q 2906 1113 2906 1747 
Q 2906 2381 2643 2742 
Q 2381 3103 1925 3103 
Q 1469 3103 1208 2742 
Q 947 2381 947 1747 
z
" transform="scale(0.015625)"/>
      <path id="DejaVuSans-4d" d="M 628 4666 
L 1569 4666 
L 2759 1491 
L 3956 4666 
L 4897 4666 
L 4897 0 
L 4281 0 
L 4281 4097 
L 3078 897 
L 2444 897 
L 1241 4097 
L 1241 0 
L 628 0 
L 628 4666 
z
" transform="scale(0.015625)"/>
      <path id="DejaVuSans-53" d="M 3425 4513 
L 3425 3897 
Q 3066 4069 2747 4153 
Q 2428 4238 2131 4238 
Q 1616 4238 1336 4038 
Q 1056 3838 1056 3469 
Q 1056 3159 1242 3001 
Q 1428 2844 1947 2747 
L 2328 2669 
Q 3034 2534 3370 2195 
Q 3706 1856 3706 1288 
Q 3706 609 3251 259 
Q 2797 -91 1919 -91 
Q 1588 -91 1214 -16 
Q 841 59 441 206 
L 441 856 
Q 825 641 1194 531 
Q 1563 422 1919 422 
Q 2459 422 2753 634 
Q 3047 847 3047 1241 
Q 3047 1584 2836 1778 
Q 2625 1972 2144 2069 
L 1759 2144 
Q 1053 2284 737 2584 
Q 422 2884 422 3419 
Q 422 4038 858 4394 
Q 1294 4750 2059 4750 
Q 2388 4750 2728 4690 
Q 3069 4631 3425 4513 
z
" transform="scale(0.015625)"/>
      <path id="DejaVuSans-45" d="M 628 4666 
L 3578 4666 
L 3578 4134 
L 1259 4134 
L 1259 2753 
L 3481 2753 
L 3481 2222 
L 1259 2222 
L 1259 531 
L 3634 531 
L 3634 0 
L 628 0 
L 628 4666 
z
" transform="scale(0.015625)"/>
     </defs>
     <use xlink:href="#DejaVuSans-52"/>
     <use xlink:href="#DejaVuSans-2d" x="65.482422"/>
     <use xlink:href="#DejaVuSans-73" x="101.566406"/>
     <use xlink:href="#DejaVuSans-71" x="153.666016"/>
     <use xlink:href="#DejaVuSans-75" x="217.142578"/>
     <use xlink:href="#DejaVuSans-61" x="280.521484"/>
     <use xlink:href="#DejaVuSans-72" x="341.800781"/>
     <use xlink:href="#DejaVuSans-65" x="380.664062"/>
     <use xlink:href="#DejaVuSans-64" x="442.1875"/>
     <use xlink:href="#DejaVuSans-20" x="505.664062"/>
     <use xlink:href="#DejaVuSans-61" x="537.451172"/>
     <use xlink:href="#DejaVuSans-6e" x="598.730469"/>
     <use xlink:href="#DejaVuSans-64" x="662.109375"/>
     <use xlink:href="#DejaVuSans-20" x="725.585938"/>
     <use xlink:href="#DejaVuSans-4d" x="757.373047"/>
     <use xlink:href="#DejaVuSans-53" x="843.652344"/>
     <use xlink:href="#DejaVuSans-45" x="907.128906"/>
     <use xlink:href="#DejaVuSans-20" x="970.3125"/>
     <use xlink:href="#DejaVuSans-56" x="1002.099609"/>
     <use xlink:href="#DejaVuSans-61" x="1062.757812"/>
     <use xlink:href="#DejaVuSans-6c" x="1124.037109"/>
     <use xlink:href="#DejaVuSans-75" x="1151.820312"/>
     <use xlink:href="#DejaVuSans-65" x="1215.199219"/>
     <use xlink:href="#DejaVuSans-73" x="1276.722656"/>
    </g>
   </g>
   <g id="legend_1">
    <g id="patch_7">
     <path d="M 79 264.250625 
L 175.079688 264.250625 
Q 177.079688 264.250625 177.079688 262.250625 
L 177.079688 174.069375 
Q 177.079688 172.069375 175.079688 172.069375 
L 79 172.069375 
Q 77 172.069375 77 174.069375 
L 77 262.250625 
Q 77 264.250625 79 264.250625 
z
" style="fill: #ffffff; opacity: 0.8; stroke: #cccccc; stroke-linejoin: miter"/>
    </g>
    <g id="line2d_20">
     <path d="M 81 180.167812 
L 91 180.167812 
L 101 180.167812 
" style="fill: none; stroke: #0000ff; stroke-width: 1.5; stroke-linecap: square"/>
     <g>
      <use xlink:href="#m7139f8a747" x="91" y="180.167812" style="fill: #0000ff; stroke: #0000ff"/>
     </g>
    </g>
    <g id="text_17">
     <!-- R-squared -->
     <g transform="translate(109 183.667812) scale(0.1 -0.1)">
      <use xlink:href="#DejaVuSans-52"/>
      <use xlink:href="#DejaVuSans-2d" x="65.482422"/>
      <use xlink:href="#DejaVuSans-73" x="101.566406"/>
      <use xlink:href="#DejaVuSans-71" x="153.666016"/>
      <use xlink:href="#DejaVuSans-75" x="217.142578"/>
      <use xlink:href="#DejaVuSans-61" x="280.521484"/>
      <use xlink:href="#DejaVuSans-72" x="341.800781"/>
      <use xlink:href="#DejaVuSans-65" x="380.664062"/>
      <use xlink:href="#DejaVuSans-64" x="442.1875"/>
     </g>
    </g>
    <g id="line2d_21">
     <path d="M 81 194.845937 
L 91 194.845937 
L 101 194.845937 
" style="fill: none; stroke: #008000; stroke-width: 1.5; stroke-linecap: square"/>
     <g>
      <use xlink:href="#m90f50a483f" x="91" y="194.845937" style="fill: #008000; stroke: #008000"/>
     </g>
    </g>
    <g id="text_18">
     <!-- MSE -->
     <g transform="translate(109 198.345937) scale(0.1 -0.1)">
      <use xlink:href="#DejaVuSans-4d"/>
      <use xlink:href="#DejaVuSans-53" x="86.279297"/>
      <use xlink:href="#DejaVuSans-45" x="149.755859"/>
     </g>
    </g>
    <g id="line2d_22">
     <path d="M 81 209.524062 
L 91 209.524062 
L 101 209.524062 
" style="fill: none; stroke: #ffa500; stroke-width: 1.5; stroke-linecap: square"/>
     <g>
      <use xlink:href="#m048416d97e" x="91" y="209.524062" style="fill: #ffa500; stroke: #ffa500"/>
     </g>
    </g>
    <g id="text_19">
     <!-- Mean y_test -->
     <g transform="translate(109 213.024062) scale(0.1 -0.1)">
      <defs>
       <path id="DejaVuSans-79" d="M 2059 -325 
Q 1816 -950 1584 -1140 
Q 1353 -1331 966 -1331 
L 506 -1331 
L 506 -850 
L 844 -850 
Q 1081 -850 1212 -737 
Q 1344 -625 1503 -206 
L 1606 56 
L 191 3500 
L 800 3500 
L 1894 763 
L 2988 3500 
L 3597 3500 
L 2059 -325 
z
" transform="scale(0.015625)"/>
       <path id="DejaVuSans-5f" d="M 3263 -1063 
L 3263 -1509 
L -63 -1509 
L -63 -1063 
L 3263 -1063 
z
" transform="scale(0.015625)"/>
      </defs>
      <use xlink:href="#DejaVuSans-4d"/>
      <use xlink:href="#DejaVuSans-65" x="86.279297"/>
      <use xlink:href="#DejaVuSans-61" x="147.802734"/>
      <use xlink:href="#DejaVuSans-6e" x="209.082031"/>
      <use xlink:href="#DejaVuSans-20" x="272.460938"/>
      <use xlink:href="#DejaVuSans-79" x="304.248047"/>
      <use xlink:href="#DejaVuSans-5f" x="363.427734"/>
      <use xlink:href="#DejaVuSans-74" x="413.427734"/>
      <use xlink:href="#DejaVuSans-65" x="452.636719"/>
      <use xlink:href="#DejaVuSans-73" x="514.160156"/>
      <use xlink:href="#DejaVuSans-74" x="566.259766"/>
     </g>
    </g>
    <g id="line2d_23">
     <path d="M 81 224.480312 
L 91 224.480312 
L 101 224.480312 
" style="fill: none; stroke: #ff0000; stroke-width: 1.5; stroke-linecap: square"/>
     <g>
      <use xlink:href="#m87a20944c0" x="91" y="224.480312" style="fill: #ff0000; stroke: #ff0000"/>
     </g>
    </g>
    <g id="text_20">
     <!-- Mean y_pred -->
     <g transform="translate(109 227.980312) scale(0.1 -0.1)">
      <defs>
       <path id="DejaVuSans-70" d="M 1159 525 
L 1159 -1331 
L 581 -1331 
L 581 3500 
L 1159 3500 
L 1159 2969 
Q 1341 3281 1617 3432 
Q 1894 3584 2278 3584 
Q 2916 3584 3314 3078 
Q 3713 2572 3713 1747 
Q 3713 922 3314 415 
Q 2916 -91 2278 -91 
Q 1894 -91 1617 61 
Q 1341 213 1159 525 
z
M 3116 1747 
Q 3116 2381 2855 2742 
Q 2594 3103 2138 3103 
Q 1681 3103 1420 2742 
Q 1159 2381 1159 1747 
Q 1159 1113 1420 752 
Q 1681 391 2138 391 
Q 2594 391 2855 752 
Q 3116 1113 3116 1747 
z
" transform="scale(0.015625)"/>
      </defs>
      <use xlink:href="#DejaVuSans-4d"/>
      <use xlink:href="#DejaVuSans-65" x="86.279297"/>
      <use xlink:href="#DejaVuSans-61" x="147.802734"/>
      <use xlink:href="#DejaVuSans-6e" x="209.082031"/>
      <use xlink:href="#DejaVuSans-20" x="272.460938"/>
      <use xlink:href="#DejaVuSans-79" x="304.248047"/>
      <use xlink:href="#DejaVuSans-5f" x="363.427734"/>
      <use xlink:href="#DejaVuSans-70" x="413.427734"/>
      <use xlink:href="#DejaVuSans-72" x="476.904297"/>
      <use xlink:href="#DejaVuSans-65" x="515.767578"/>
      <use xlink:href="#DejaVuSans-64" x="577.291016"/>
     </g>
    </g>
    <g id="line2d_24">
     <path d="M 81 239.436562 
L 91 239.436562 
L 101 239.436562 
" style="fill: none; stroke: #808080; stroke-width: 1.5; stroke-linecap: square"/>
     <g>
      <use xlink:href="#m745bc9ff31" x="91" y="239.436562" style="fill: #808080; stroke: #808080"/>
     </g>
    </g>
    <g id="text_21">
     <!-- Std y_test -->
     <g transform="translate(109 242.936562) scale(0.1 -0.1)">
      <use xlink:href="#DejaVuSans-53"/>
      <use xlink:href="#DejaVuSans-74" x="63.476562"/>
      <use xlink:href="#DejaVuSans-64" x="102.685547"/>
      <use xlink:href="#DejaVuSans-20" x="166.162109"/>
      <use xlink:href="#DejaVuSans-79" x="197.949219"/>
      <use xlink:href="#DejaVuSans-5f" x="257.128906"/>
      <use xlink:href="#DejaVuSans-74" x="307.128906"/>
      <use xlink:href="#DejaVuSans-65" x="346.337891"/>
      <use xlink:href="#DejaVuSans-73" x="407.861328"/>
      <use xlink:href="#DejaVuSans-74" x="459.960938"/>
     </g>
    </g>
    <g id="line2d_25">
     <path d="M 81 254.392812 
L 91 254.392812 
L 101 254.392812 
" style="fill: none; stroke: #000000; stroke-width: 1.5; stroke-linecap: square"/>
     <g>
      <use xlink:href="#m76b0dcf937" x="91" y="254.392812" style="stroke: #000000"/>
     </g>
    </g>
    <g id="text_22">
     <!-- STd y_pred -->
     <g transform="translate(109 257.892812) scale(0.1 -0.1)">
      <defs>
       <path id="DejaVuSans-54" d="M -19 4666 
L 3928 4666 
L 3928 4134 
L 2272 4134 
L 2272 0 
L 1638 0 
L 1638 4134 
L -19 4134 
L -19 4666 
z
" transform="scale(0.015625)"/>
      </defs>
      <use xlink:href="#DejaVuSans-53"/>
      <use xlink:href="#DejaVuSans-54" x="63.476562"/>
      <use xlink:href="#DejaVuSans-64" x="124.560547"/>
      <use xlink:href="#DejaVuSans-20" x="188.037109"/>
      <use xlink:href="#DejaVuSans-79" x="219.824219"/>
      <use xlink:href="#DejaVuSans-5f" x="279.003906"/>
      <use xlink:href="#DejaVuSans-70" x="329.003906"/>
      <use xlink:href="#DejaVuSans-72" x="392.480469"/>
      <use xlink:href="#DejaVuSans-65" x="431.34375"/>
      <use xlink:href="#DejaVuSans-64" x="492.867188"/>
     </g>
    </g>
   </g>
  </g>
 </g>
 <defs>
  <clipPath id="pcff5c1a58d">
   <rect x="72" y="51.84" width="446.4" height="332.64"/>
  </clipPath>
 </defs>
</svg>
